{
  "project_info": {
    "project_number": "869298846509",
    "firebase_url": "https://prototypeg-923f9.firebaseio.com",
    "project_id": "prototypeg-923f9",
    "storage_bucket": "prototypeg-923f9.appspot.com"
  },
  "client": [
    {
      "client_info": {
        "mobilesdk_app_id": "1:869298846509:android:493696add3f2343ba271a4",
        "android_client_info": {
          "package_name": "com.gitlab.prototypeg.android"
        }
      },
      "oauth_client": [
        {
          "client_id": "869298846509-fmvtdghbq9296mt9gh55r3tg9mr4s9q4.apps.googleusercontent.com",
          "client_type": 3
        }
      ],
      "api_key": [
        {
          "current_key": "AIzaSyDMDCYRNNAkySuFklu1xRHymrhqkibpsAw"
        }
      ],
      "services": {
        "appinvite_service": {
          "other_platform_oauth_client": [
            {
              "client_id": "869298846509-fmvtdghbq9296mt9gh55r3tg9mr4s9q4.apps.googleusercontent.com",
              "client_type": 3
            }
          ]
        }
      }
    }
  ],
  "configuration_version": "1"
}